<svg width="200" height="200" viewBox="0 0 100 100" fill="none" xmlns="http://www.w3.org/2000/svg">
<path d="M99.5317 25.1563C99.5317 25.1563 90.0005 6.40625 87.5005 5C85.0005 3.59375 71.0942 3.90625 65.938 1.875C65.938 1.875 59.5317 9.37501 50.0005 9.37501C40.4692 9.37501 34.063 1.875 34.063 1.875C28.7505 3.90625 15.0005 3.59375 12.5005 5C10.0005 6.40625 0.312988 25.1563 0.312988 25.1563C5.62549 37.1875 18.1255 39.8438 18.1255 39.8438L23.1255 32.0313L20.7817 92.5001C32.813 99.5313 41.563 100 50.0005 100C58.438 100 67.0317 99.5313 79.063 92.6563L76.7192 32.1875L81.7192 40C81.7192 39.8438 94.3755 37.3438 99.5317 25.1563" fill="#247BA0"/>
<path d="M50.3125 11.25C47.8125 11.25 45.4688 10.7813 42.9688 9.84376C41.0937 9.06251 39.0625 8.12501 37.1875 6.87501C34.0625 4.84375 32.0312 2.65625 32.0312 2.65625L35 0.3125L33.5938 1.40625L35 0.3125C35 0.3125 36.7187 2.1875 39.5312 4.0625C42.0312 5.625 45.9375 7.65626 50.3125 7.65626C55.3125 7.65626 60.1563 5 64.6875 0L67.6562 2.34375C64.8437 5.46875 62.0313 7.81251 58.9063 9.21876C56.25 10.4688 53.4375 11.25 50.3125 11.25" fill="#FF9800"/>
<path d="M20.3125 36.5625C14.8438 36.0938 10.1562 33.4375 6.40625 28.5938C4.21875 25.7813 2.8125 22.9688 2.1875 21.4062L0 25.7813C0.78125 27.3438 1.875 29.0625 3.28125 30.7813C5.46875 33.5938 7.96875 35.7813 10.625 37.3438C12.9688 38.75 15.4687 39.6875 18.2812 40L20.3125 36.5625" fill="#FF9800"/>
<path d="M79.6875 36.7188C85.1562 36.25 89.8438 33.5938 93.5938 28.75C95.7813 25.9375 97.1875 23.125 97.8125 21.5625L100 25.7813C99.2188 27.3438 98.125 29.0625 96.7188 30.7813C94.5313 33.5938 92.0313 35.7813 89.375 37.3438C87.0313 38.75 84.375 39.6875 81.7187 40L79.6875 36.7188Z" fill="#FF9800"/>
</svg>
