<svg width="329" height="490" viewBox="0 0 329 490" fill="none" xmlns="http://www.w3.org/2000/svg">
<path d="M249.995 225.15C246.956 229.821 245.333 235.335 245.333 240.906C245.333 250.162 249.885 259.014 257.397 264.417C265.016 269.894 275.088 271.322 283.932 268.188C292.53 265.14 299.346 257.998 301.977 249.263C304.682 240.283 302.786 230.312 296.965 222.96C291.194 215.674 282.104 211.551 272.823 212.008C263.618 212.458 255.018 217.425 249.995 225.15Z" fill="#009688"/>
<path d="M328.512 340.094C328.569 341.679 328.475 338.507 328.512 340.094V340.094Z" fill="black"/>
<path d="M68.3398 126.863C75.2148 130.562 82.9708 132.496 90.7758 132.496C109.323 132.496 126.563 121.294 134.11 104.35C141.755 87.1863 138.294 66.5643 125.512 52.8133C112.739 39.0693 92.4848 34.1033 74.8048 40.4273C57.4198 46.6453 44.9418 62.9423 43.5078 81.3513C42.0608 99.9303 51.9258 118.029 68.3398 126.863Z" fill="#FF9800"/>
<path d="M150.172 86.2904C159.225 94.4594 171.151 99.0394 183.344 99.0394C201.869 99.0394 219.223 88.3474 227.575 71.8124C236.043 55.0514 234.104 34.3474 222.698 19.4404C211.332 4.58436 192.098 -2.69564 173.737 0.912363C155.717 4.45336 140.772 18.2034 135.719 35.8564C130.563 53.8814 136.26 73.7344 150.172 86.2904Z" fill="#247BA0"/>
<path d="M311.493 348.593C311.975 353.089 316.026 356.502 320.534 356.241C324.987 355.984 328.579 352.198 328.616 347.741C328.637 345.184 328.602 342.649 328.512 340.094C328.375 334.113 327.165 327.913 325.422 322.201C323.92 317.277 321.987 312.487 319.53 307.961C313.524 296.9 304.944 287.288 294.639 280.056C292.231 278.368 289.68 276.603 286.924 275.535C279.102 271.705 269.721 271.66 261.861 275.41C259.753 276.152 257.81 277.396 255.943 278.602C253.619 280.102 251.392 281.749 249.244 283.492C244.248 287.545 239.718 292.194 235.802 297.298C228.943 306.236 223.871 316.723 221.576 327.781C220.203 334.408 219.757 340.989 219.808 347.742C219.841 352.263 223.535 356.064 228.046 356.251C232.503 356.437 236.451 353.025 236.933 348.594C237.943 339.068 240.214 329.691 245.437 321.521V330.799L226.326 407.99C225.468 411.319 224.904 414.761 231.398 414.761H247.273L250.218 479.212C250.476 484.488 254.966 488.787 260.253 488.782C265.499 488.776 269.951 484.541 270.238 479.305L273.806 414.76H274.876L277.82 479.211C278.078 484.487 282.568 488.786 287.855 488.781C293.101 488.774 297.554 484.54 297.843 479.304L301.408 414.759H316.939C318.638 414.759 320.235 414.007 321.318 412.697C322.402 411.384 322.839 409.675 322.506 407.971L303.09 330.492V321.685C308.362 329.662 310.503 339.239 311.493 348.593Z" fill="#009688"/>
<path d="M220.512 411.676L227.104 383.139L228 365.432C219.778 363.362 213.811 355.989 213.75 347.298C213.68 339.336 214.271 331.544 216.073 323.775C217.875 316.006 220.772 308.643 224.565 301.644C226.813 297.498 229.487 293.557 232.391 289.848C232.747 286.613 232.688 283.367 232.688 280.117C232.688 275.56 232.688 271.002 232.688 266.444C232.688 253.324 232.688 240.203 232.688 227.083C232.688 217.688 232.688 208.294 232.688 198.899C232.688 198.407 232.688 197.916 232.688 197.424C236.876 206.454 239.809 215.909 242.192 225.558C247.346 212.993 258.394 206.631 273.671 204.107C271.148 194.301 267.152 182.083 262.925 172.858C257.527 161.084 250.976 149.913 242.8 139.838C237.462 133.257 231.492 127.212 225.025 121.742C221.869 119.119 218.587 116.632 215.157 114.377C212.275 112.483 209.179 110.805 206.054 109.32C173.562 93.8803 147.765 118.963 147.126 119.529C140.192 125.688 133.259 131.847 126.325 138.008C144.62 150.903 159.743 168.025 170.345 187.719C177.132 200.325 181.839 214.201 184.171 228.321C185.757 237.92 186.202 247.513 186.122 257.235C186.011 270.465 174.802 281.501 161.566 281.387C159.558 281.37 157.605 281.112 155.736 280.634C155.736 280.634 173.966 347.132 174.999 351.379C176.395 357.129 176.874 369.084 163.561 369.084C148.686 369.084 141.461 369.084 141.461 369.084L139.77 398.937L142.813 471.829C143.221 480.87 150.893 488.26 159.952 488.267C168.972 488.275 176.63 480.98 177.085 471.977L183.251 349.858L188.347 471.828C188.755 480.869 196.429 488.26 205.486 488.266C214.507 488.273 222.164 480.979 222.619 471.975L225.3 418.931C218.313 418.38 220.512 411.676 220.512 411.676Z" fill="#247BA0"/>
<path d="M160.951 363.839C163.498 363.839 165.891 362.712 167.514 360.747C169.138 358.779 169.844 356.536 169.295 353.665L136.512 234.773V215.95C141.26 223.279 144.617 231.737 146.875 240.142C148.635 246.692 149.553 253.314 150.271 260.043C151.058 267.378 157.646 272.961 165.003 272.581C172.335 272.202 178.271 265.984 178.331 258.646C178.368 254.126 178.333 249.64 178.111 245.125C177.808 238.925 176.841 232.72 175.581 226.65C172.95 213.993 168.265 201.718 161.822 190.508C155.375 179.284 147.23 169.062 137.84 160.16C133.328 155.882 128.512 151.91 123.451 148.298C119.578 145.534 115.525 142.781 111.183 140.806C110.796 140.63 110.404 140.475 110.007 140.324C97.1907 134.052 81.8227 133.974 68.9477 140.122C64.3737 141.731 60.1687 144.639 56.2157 147.385C51.2097 150.861 46.4617 154.7 41.9697 158.817C32.3997 167.586 24.2397 177.731 17.5377 188.832C14.1827 194.39 11.3147 200.289 8.90468 206.315C6.54568 212.221 4.48269 218.427 3.19969 224.664C1.91669 230.891 0.980686 237.079 0.373686 243.409C-0.105314 248.403 -0.00131156 253.439 0.0356884 258.448C0.0376884 258.513 0.0376873 258.581 0.0376873 258.648C0.0926873 266.029 6.09869 272.241 13.4637 272.586C20.7937 272.93 27.3097 267.333 28.0987 260.042C28.8197 253.313 29.7377 246.691 31.4947 240.143C33.7937 231.588 37.2567 223.163 42.0297 215.68V233.342L9.15269 353.69C8.66069 356.198 9.31069 358.765 10.9307 360.737C12.5537 362.709 14.9497 363.841 17.5037 363.841H44.8687L49.8697 474.083C50.2917 482.7 57.6057 489.737 66.2427 489.764C74.8657 489.79 82.2057 482.843 82.6787 474.239L88.7307 363.843H90.1057L95.1047 474.085C95.5267 482.702 102.843 489.739 111.478 489.766C120.101 489.792 127.443 482.845 127.916 474.241L133.968 363.845H160.951V363.839Z" fill="#FF9800"/>
</svg>
