<svg width="460" height="444" viewBox="0 0 460 444" fill="none" xmlns="http://www.w3.org/2000/svg">
<path d="M194 32H32V280H194V32Z" fill="#247BA0"/>
<path d="M430 32H268V280H430V32Z" fill="#247BA0"/>
<path d="M0 0V314H30V444H59V394H401V444H430V314H460V0H0ZM275 40H420V274H275V40ZM215 112H245V142H215V112ZM215 172H245V202H215V172ZM40 40H185V274H40V40ZM401 365H59V314H401V365Z" fill="#247BA0"/>
<path d="M164.8 248H54.4V228.8L139.12 134.48V101.36L126.64 88.64H89.92L75.52 103.52V124.64H55.6V94.4L80.56 68H136.24L161.2 94.4V141.44L81.28 228.8H145.6V200.96H164.8V248Z" fill="#FF9800"/>
<path d="M369.24 68V228.8H405.24V248H311.16V228.8H347.16V91.28L308.04 110.72L298.68 92L347.16 68H369.24Z" fill="#FF9800"/>
<rect x="215" y="112" width="30" height="30" fill="#FF9800"/>
<rect x="215" y="172" width="30" height="30" fill="#FF9800"/>
<rect x="30" y="314" width="29" height="130" fill="#009688"/>
<rect x="401" y="314" width="29" height="130" fill="#009688"/>
<rect x="59" y="365" width="342" height="29" fill="#009688"/>
</svg>
