<svg width="109" height="109" viewBox="0 0 109 109" fill="none" xmlns="http://www.w3.org/2000/svg">
<path d="M95.4875 50.3016C90.1367 44.9516 80.3492 46.0617 73.6297 52.7836C69.6914 56.7211 67.6953 61.7063 67.7797 66.2406C67.4625 71.0969 66.5922 75.7836 64.2945 78.5008L63.5 77.7055L62.2742 78.9305L62.6141 79.2703L54.3727 87.5117L54.0328 87.1719L52.8086 88.3961L57.2852 92.875L58.5109 91.6508L58.1711 91.3117L66.4133 83.0703L66.7531 83.4094L67.9766 82.1852L67.2914 81.4961C70.007 79.2 74.6875 78.3305 79.5391 78.0109C84.075 78.0992 89.0648 76.1039 93.0062 72.1625C99.7305 65.4406 100.84 55.6531 95.4875 50.3016V50.3016ZM96.4109 59.0289L95.2875 57.907L96.1594 57.0367C96.3008 57.6836 96.3836 58.3492 96.4109 59.0289ZM95.7961 55.7711L94.4742 57.0938L91.9945 54.6133L93.9617 52.6453C94.7674 53.5604 95.3901 54.6215 95.7961 55.7711V55.7711ZM72.9766 67.0367L76.0875 63.9242L78.5695 66.4055L75.457 69.5164L72.9766 67.0367V67.0367ZM74.6445 70.3336L72.6734 72.3024C71.8669 71.387 71.2441 70.325 70.8391 69.1742L72.1617 67.8531L74.6445 70.3336V70.3336ZM84.7711 55.243L87.8805 52.132L90.3609 54.6141L87.2492 57.7258L84.7711 55.243ZM89.7297 61.8352L86.6164 64.9539L84.1328 62.4742L87.2492 59.3563L89.7297 61.8352V61.8352ZM86.4344 58.5406L83.318 61.657L80.8375 59.1766L83.9539 56.0594L86.4344 58.5406ZM82.5023 62.4742L79.3852 65.5906L76.9031 63.1086L80.0211 59.9922L82.5023 62.4742ZM80.0211 58.3609L77.5469 55.8859L80.6633 52.7688L83.1359 55.243L80.0211 58.3609V58.3609ZM79.2063 59.1774L76.0875 62.293L73.6141 59.818L76.7289 56.7L79.2063 59.1774ZM79.3852 67.2227L81.8648 69.7016L78.7539 72.8141L76.275 70.332L79.3852 67.2227V67.2227ZM80.2031 66.4055L83.318 63.2891L85.7984 65.7695L82.6797 68.8867L80.2031 66.4055V66.4055ZM86.6164 66.5844L89.0867 69.0602L85.9695 72.1766L83.4938 69.7016L86.6164 66.5844ZM87.4297 65.7688L90.5461 62.6524L93.0219 65.1266L89.9055 68.2438L87.4297 65.7688V65.7688ZM88.0656 58.5414L91.1781 55.4289L93.6578 57.9078L90.5492 61.0203L88.0656 58.5414ZM93.1469 51.8297L91.1781 53.7984L88.6953 51.3164L90.0164 49.9953C91.1682 50.3996 92.2312 51.0225 93.1469 51.8297V51.8297ZM88.7516 49.6297L87.8813 50.5L86.7602 49.3789C87.4398 49.407 88.1055 49.4891 88.7516 49.6297V49.6297ZM85.1648 49.4149L87.0648 51.3156L83.9547 54.4274L81.4781 51.9531L83.8383 49.593C84.2828 49.5109 84.7258 49.4524 85.1648 49.4149V49.4149ZM81.6047 50.1953L80.6641 51.1375L80.2633 50.7367C80.702 50.5361 81.1496 50.3555 81.6047 50.1953V50.1953ZM79.1781 51.282L79.8469 51.9516L76.7289 55.0695L75.5719 53.9094C76.6585 52.8852 77.8702 52.0025 79.1781 51.282V51.282ZM74.7555 54.7266L75.9148 55.8859L72.7977 59.0024L72.1281 58.332C72.8488 57.0245 73.7315 55.8131 74.7555 54.7266V54.7266ZM71.582 59.418L71.982 59.8188L71.0398 60.7609C71.1977 60.3094 71.3773 59.8625 71.582 59.418ZM70.4375 62.9922L72.7977 60.6328L75.2727 63.1078L72.1617 66.218L70.2586 64.3156C70.2969 63.8781 70.3555 63.4359 70.4375 62.9922ZM71.3445 67.0359L70.4742 67.9063C70.3324 67.2511 70.2488 66.5847 70.2242 65.9149L71.3445 67.0359ZM68.0055 77.7867C67.1508 76.932 68.2633 73.6195 69.0336 71.65C69.568 72.743 70.2594 73.7586 71.1445 74.6438C72.0305 75.5297 73.0469 76.2219 74.1422 76.757C72.1727 77.5266 68.8586 78.6399 68.0055 77.7867V77.7867ZM73.4891 73.1188L75.4578 71.1492L77.9383 73.6305L76.6141 74.9516C75.4647 74.5463 74.4038 73.9241 73.4891 73.1188V73.1188ZM77.882 75.3156L78.7531 74.4445L79.875 75.5672C79.2046 75.5421 78.5377 75.4579 77.882 75.3156V75.3156ZM81.4711 75.5313L79.568 73.6281L82.6789 70.5172L85.1555 72.9914L82.7945 75.3539C82.3565 75.4346 81.9149 75.4938 81.4711 75.5313V75.5313ZM85.0273 74.7516L85.9687 73.8102L86.3703 74.2102C85.9258 74.4125 85.4781 74.593 85.0273 74.7516ZM87.4586 73.6617L86.7891 72.9914L89.9055 69.8758L91.0641 71.0344C89.9779 72.0588 88.7664 72.9416 87.4586 73.6617ZM91.8797 70.2188L90.7203 69.0602L93.8367 65.943L94.5078 66.6125C93.7867 67.9202 92.9037 69.1318 91.8797 70.2188ZM95.0531 65.5274L94.6523 65.1274L95.5937 64.1859C95.4342 64.6411 95.2538 65.0887 95.0531 65.5274V65.5274ZM96.1969 61.9508L93.8367 64.3117L91.3633 61.8352L94.4742 58.7242L96.3758 60.6274C96.3378 61.0712 96.2781 61.5128 96.1969 61.9508Z" fill="#F79329"/>
<path d="M60.5938 63.1875C62.8891 63.1875 65.0477 62.2937 66.6711 60.6711C68.2945 59.0477 69.1875 56.8891 69.1875 54.5937C69.1875 52.2984 68.2922 50.1398 66.6687 48.5172C65.0461 46.8945 62.8883 46 60.593 46C58.2977 46 56.1406 46.8937 54.518 48.5172C52.8945 50.1398 52 52.2984 52 54.5937C52 56.8891 52.8938 59.0484 54.5172 60.6711C55.3134 61.4714 56.2604 62.1059 57.3035 62.5378C58.3465 62.9697 59.4648 63.1906 60.5938 63.1875V63.1875ZM65.657 49.5305C66.9509 50.8201 67.6987 52.5582 67.7453 54.3844C65.9295 54.307 64.2091 53.5502 62.925 52.2641C61.6381 50.9802 60.8812 49.2592 60.8047 47.443C62.6302 47.4898 64.3677 48.2373 65.657 49.5305V49.5305ZM55.5305 49.5297C56.7082 48.3461 58.2652 47.615 59.9281 47.4648C60.0096 49.5061 60.8571 51.4418 62.3017 52.8863C63.7463 54.3308 65.6821 55.1781 67.7234 55.2594C67.5738 56.9229 66.8424 58.4803 65.6578 59.6578C64.4798 60.8414 62.9226 61.5724 61.2594 61.7227C61.1781 59.6817 60.3306 57.7463 58.8859 56.3023C57.4422 54.8574 55.5067 54.0099 53.4656 53.9289C53.6145 52.2651 54.3457 50.7072 55.5305 49.5297V49.5297ZM58.2633 56.9234C59.5493 58.2079 60.306 59.9286 60.3836 61.7445C58.5577 61.6982 56.8196 60.951 55.5297 59.6578C54.2361 58.3682 53.4888 56.6299 53.443 54.8039C55.2586 54.8814 56.9789 55.6378 58.2633 56.9234" fill="#ED6C30"/>
<g clip-path="url(#clip0)">
<path d="M38.6946 74.6642C39.011 74.7306 39.2063 74.9611 39.0032 75.4806C38.9289 75.6759 38.8039 75.8908 38.7766 76.0978C38.9094 76.0783 38.968 76.0002 39.0539 75.9064C39.175 75.7775 39.3157 75.6681 39.4368 75.5392C39.7024 75.2658 39.9993 74.9142 40.1477 74.5627C40.2024 74.4377 40.2375 74.3127 40.3039 74.1916C40.4016 74.0197 40.5422 73.84 40.4758 73.6291C40.3899 73.3556 39.9485 73.422 39.6946 73.422C39.4407 73.422 39.1555 73.383 38.9133 73.4728C38.6125 73.5822 38.2961 73.7541 38.0188 73.9259C37.7922 74.0744 37.4914 74.1759 37.3235 74.4025C37.261 74.4923 37.2649 74.5744 37.3039 74.672C37.343 74.7658 37.3235 74.8556 37.343 74.965C37.4719 74.9728 37.593 74.8244 37.7141 74.7814C38.0071 74.672 38.4016 74.6017 38.6946 74.6642Z" fill="#009688"/>
<path d="M42.9999 70.3048C42.8707 70.2023 42.7062 70.1551 42.5423 70.1734C42.3784 70.1917 42.2284 70.274 42.1249 70.4025C41.9726 70.5939 39.7733 73.422 37.7148 78.3595C37.3632 77.5821 36.9804 76.8204 36.5702 76.0626C38.1327 74.0743 39.2069 73.0118 39.2382 72.9845C39.4843 72.7462 39.4921 72.3517 39.2499 72.1017C39.0116 71.8517 38.6171 71.8478 38.371 72.086C38.3437 72.1134 37.3515 73.0939 35.9062 74.8985C35.5624 74.3204 35.1952 73.7423 34.8007 73.1564C34.6366 72.9142 34.3046 72.8478 34.0624 73.0157C33.8163 73.1798 33.7538 73.5118 33.9179 73.754C34.3689 74.4237 34.7963 75.109 35.1991 75.8087C33.9702 77.4172 32.828 79.0902 31.7773 80.8204C30.6679 78.711 29.6327 77.1368 28.8319 76.0509C29.3827 75.4025 29.7187 75.0704 29.7343 75.0587C29.9804 74.8204 29.9843 74.4259 29.746 74.1759C29.5077 73.9298 29.1093 73.9259 28.8632 74.1642C28.8202 74.211 28.5194 74.5079 28.0546 75.0392C27.6171 74.5118 27.3358 74.215 27.2929 74.172C27.0507 73.9298 26.6562 73.9259 26.414 74.1681C26.1718 74.4103 26.1679 74.8048 26.4101 75.0509C26.4218 75.0626 26.7304 75.3829 27.2382 76.0235C26.4804 76.9767 25.5077 78.2931 24.4452 80.0079C23.1601 77.5782 21.9882 75.7462 21.1757 74.5782C21.3515 74.3048 21.5155 74.0314 21.703 73.754C21.8671 73.5118 21.8007 73.1798 21.5585 73.0157C21.3163 72.8517 20.9843 72.9142 20.8202 73.1564C20.7108 73.3204 20.6132 73.4845 20.5077 73.6446C20.2577 73.3087 20.0937 73.1017 20.0546 73.0587C19.8319 72.7931 19.4413 72.754 19.1796 72.9728C19.1161 73.0243 19.0635 73.0878 19.0246 73.1596C18.9857 73.2315 18.9614 73.3103 18.9531 73.3916C18.9447 73.4729 18.9525 73.555 18.976 73.6333C18.9994 73.7116 19.0381 73.7845 19.0898 73.8478C19.1015 73.8634 19.3593 74.1876 19.7812 74.7775C19.078 75.9376 18.4765 77.0939 17.9296 78.2892C15.8866 73.3946 13.703 70.5939 13.5507 70.4025C13.4998 70.3384 13.4367 70.2851 13.3651 70.2455C13.2935 70.2059 13.2148 70.1809 13.1335 70.1718C13.0522 70.1627 12.9699 70.1698 12.8913 70.1926C12.8128 70.2155 12.7395 70.2536 12.6757 70.3048C12.4062 70.5196 12.3632 70.9103 12.578 71.1798C12.6405 71.2579 18.7655 79.0939 20.0624 91.715C20.078 91.8868 20.164 92.0275 20.2851 92.129C20.6796 92.6915 21.5976 93.086 22.7108 93.3595C22.7968 93.4025 22.8866 93.4337 22.9882 93.4337C22.9921 93.4337 23.0038 93.4298 23.0116 93.4298C24.1171 93.672 25.3827 93.8048 26.5273 93.8595C26.5858 93.8751 26.6405 93.8868 26.6991 93.8868C26.7343 93.8868 26.7655 93.8751 26.8007 93.8712C27.5062 93.8986 28.2125 93.8973 28.9179 93.8673C28.953 93.8751 28.9843 93.8829 29.0233 93.8829C29.078 93.8829 29.1366 93.8751 29.1913 93.8595C29.1952 93.8595 29.1991 93.8517 29.2069 93.8517C30.3358 93.7931 31.578 93.6642 32.6718 93.4259C32.6757 93.4259 32.6835 93.4298 32.6913 93.4298C32.7929 93.4298 32.8827 93.3985 32.9726 93.3556C34.0898 93.0821 35.0038 92.6876 35.3983 92.1251C35.5233 92.0235 35.6093 91.8829 35.6249 91.711C36.9257 79.09 43.0468 71.254 43.1132 71.1759C43.3124 70.9142 43.2694 70.5196 42.9999 70.3048V70.3048ZM35.8632 76.9884C36.3437 77.8907 36.7733 78.8087 37.164 79.754C36.7108 80.9532 36.2773 82.2657 35.8866 83.672C35.3632 84.672 34.8749 85.6915 34.4101 86.7228C33.7616 85.004 33.0976 83.4845 32.4413 82.1368C33.6483 80.0978 34.8319 78.3673 35.8632 76.9884V76.9884ZM29.4765 92.6368C29.203 91.6798 28.914 90.7618 28.6171 89.8673C29.5082 87.6722 30.5309 85.5329 31.6796 83.461C32.3554 84.9025 33.0312 86.5431 33.6796 88.3829C33.1444 89.672 32.6483 90.9806 32.203 92.297C31.4687 92.4532 30.5507 92.5743 29.4765 92.6368V92.6368ZM28.0116 77.0626C28.8358 78.215 29.8983 79.8829 31.0194 82.1017C29.996 83.8868 28.9687 85.8868 28.0038 88.0978C27.0741 85.5353 26.078 83.2618 25.1132 81.3243C26.2069 79.5079 27.2148 78.0821 28.0116 77.0626ZM23.4804 92.3048C23.0233 90.7032 22.496 89.1251 21.914 87.5587C22.7226 85.711 23.5468 84.0743 24.3476 82.6446C25.3476 84.715 26.3632 87.1212 27.2929 89.836C26.9335 90.7423 26.5858 91.6759 26.2577 92.6446C25.1601 92.5782 24.2304 92.4571 23.4804 92.3048V92.3048ZM20.4491 75.754C21.289 77.0118 22.4374 78.8751 23.6757 81.2814C22.8944 82.6251 22.0858 84.1642 21.2812 85.9064C20.539 84.0548 19.7069 82.215 18.7616 80.3595C18.746 80.3321 18.7226 80.3126 18.703 80.2853C18.6288 80.0821 18.5546 79.879 18.4843 79.6798C19.0486 78.3278 19.7051 77.0161 20.4491 75.754V75.754ZM21.2773 91.465C21.2108 90.8439 21.1249 90.2423 21.0429 89.6446C21.0976 89.5118 21.1483 89.3868 21.203 89.2579C21.5116 90.1407 21.7929 91.0275 22.0585 91.922C21.6249 91.7618 21.3515 91.5978 21.2773 91.465V91.465ZM27.5585 92.6837C27.6757 92.3595 27.789 92.0353 27.9023 91.7189C27.9999 92.0353 28.0937 92.3595 28.1874 92.6837C28.0702 92.6837 27.953 92.6876 27.8319 92.6876C27.7421 92.6876 27.6523 92.6837 27.5585 92.6837ZM33.6679 91.8985C33.8671 91.336 34.0741 90.7735 34.289 90.215C34.3515 90.4103 34.414 90.5978 34.4765 90.797C34.4491 91.0196 34.4179 91.2306 34.3944 91.4571C34.3241 91.59 34.078 91.7423 33.6679 91.8985V91.8985Z" fill="#009688"/>
<path d="M16.7147 75.6915C16.6952 75.6173 16.6834 75.5431 16.66 75.4689C16.6327 75.3947 16.6014 75.3283 16.5819 75.254C16.5467 75.1134 16.5155 74.9689 16.5194 74.8205C16.535 74.504 16.7733 74.4181 17.0545 74.4845C17.5194 74.59 19.4178 75.5705 19.6561 74.7306C19.7733 74.3126 19.1834 74.258 18.9295 74.1837C18.6444 74.0978 18.3983 74.0314 18.0975 74.004C17.4842 73.9533 16.9217 73.633 16.3475 73.4376C16.2069 73.3908 15.16 73.0119 15.2342 73.4376C15.2538 73.5392 15.3045 73.6212 15.3124 73.7267C15.328 73.8751 15.3553 74.0197 15.4217 74.1564C15.5897 74.508 15.8514 74.7931 16.0506 75.1212C16.2499 75.4494 16.2459 75.9103 16.6092 76.1251C16.6913 76.172 16.785 76.1994 16.8124 76.1017C16.8397 76.008 16.7811 75.8751 16.7499 75.7931C16.7342 75.758 16.7225 75.7228 16.7147 75.6915V75.6915Z" fill="#009688"/>
<path d="M27.8359 61.5C18.9102 61.5 11.6758 64.8125 11.6758 68.9023C11.6758 72.9883 18.9141 76.3047 27.8359 76.3047C36.7656 76.3047 43.9961 72.9883 43.9961 68.9023C43.9961 64.8125 36.7617 61.5 27.8359 61.5ZM27.8359 73.3164C20.9805 73.3164 15.418 71.2344 15.418 68.668C15.418 66.1016 20.9766 64.0195 27.8359 64.0195C34.6953 64.0195 40.2539 66.1016 40.2539 68.668C40.2539 71.2344 34.6953 73.3164 27.8359 73.3164Z" fill="#F79329"/>
<path d="M36.1172 72.3711C44.1534 72.3711 50.668 66.0436 50.668 58.2383C50.668 50.4329 44.1534 44.1055 36.1172 44.1055C28.081 44.1055 21.5664 50.4329 21.5664 58.2383C21.5664 66.0436 28.081 72.3711 36.1172 72.3711Z" fill="#ED6C30"/>
<path d="M33.0825 73.1563C33.0825 73.1563 24.5942 64.0508 27.9301 50.8828C29.3168 45.4141 33.7856 43.8125 33.7856 43.8125H36.8676C36.8676 43.8125 30.7543 44.9805 29.4848 51.7695C27.1528 64.2148 37.6606 73.5039 37.6606 73.5039L33.0825 73.1563Z" fill="#F79329"/>
<path d="M26.5246 46.8985C26.5246 46.8985 26.216 49.3165 29.4386 49.3165C36.2121 49.3165 39.9933 44.9102 45.4152 46.2969L42.591 44.8829C42.591 44.8829 40.966 44.5743 39.5519 45.0274C38.1379 45.4805 33.1418 48.0587 30.0089 48.1094C26.673 48.1602 28.0089 45.836 28.0089 45.836L26.5246 46.8985V46.8985Z" fill="#F79329"/>
<path d="M21.0674 62.6289C21.0674 62.6289 22.3213 55.1055 28.0674 54.4883C32.9072 53.9687 36.3369 56.2461 39.626 58.625C45.5518 62.9141 48.3408 68.3633 48.3408 68.3633L46.3096 71.3945C46.3096 71.3945 44.751 66.5078 37.8955 60.1211C35.3135 57.7187 31.7549 55.8281 28.0713 56.1836C22.2783 56.7461 23.0518 66.5351 23.0518 66.5351L21.0674 62.6289V62.6289Z" fill="#F79329"/>
<path d="M20.5557 54.0783C20.5557 54.0783 22.7432 51.2072 28.6807 50.6916C42.5518 49.4963 52.1103 59.3557 52.1103 59.3557L52.8525 64.051C52.8525 64.051 41.9541 51.1799 28.5752 52.2072C22.1104 52.7033 20.5518 56.6642 20.5518 56.6642V54.0783H20.5557Z" fill="#F79329"/>
</g>
<path d="M70.9684 12.0362C77.0259 20.855 74.7884 32.915 65.969 38.9675C57.1503 45.0256 45.0903 42.7875 39.0315 33.9675C32.9728 25.1487 35.2121 13.0887 44.0315 7.02998C52.8503 0.973106 64.9103 3.21186 70.9628 12.03" fill="#009688"/>
<path d="M57.0588 29.5912L49.0363 30.4843L44.25 23.9849L47.4887 16.5912L55.5125 15.6962L60.2981 22.1987L57.0588 29.5912Z" fill="#FF9800"/>
<path d="M73.2975 17.4998C72.7251 15.5006 71.8346 13.6065 70.66 11.8904C68.9677 9.42902 66.7256 7.39535 64.1112 5.95044L61.5625 11.7729L66.3481 18.2742L73.2969 17.4992" fill="#FF9800"/>
<path d="M46.551 10.3343L49.0423 4.64429C45.2487 5.80883 41.9046 8.11108 39.4629 11.2393L46.4835 10.458C46.5073 10.4155 46.526 10.3749 46.551 10.3343Z" fill="#FF9800"/>
<path d="M67.8957 29.8099L64.6582 37.2043L65.9157 38.9118C65.9301 38.8993 65.9488 38.893 65.9657 38.8805C69.5276 36.4355 71.9945 33.0018 73.2926 29.2068L67.8926 29.8087" fill="#FF9800"/>
<path d="M39.4673 27.7867L36.2754 28.143C37.3166 32.0974 39.5741 35.5242 42.6016 38.0574L44.2523 34.2886L39.4673 27.7874" fill="#FF9800"/>
<defs>
<clipPath id="clip0">
<rect width="50" height="50" fill="white" transform="translate(5 44)"/>
</clipPath>
</defs>
</svg>
